module gitlab.com/tmpdir/tmpdir.org

go 1.20

require (
	cloud.google.com/go/storage v1.30.1
	github.com/hajimehoshi/go-mp3 v0.3.4
)

require (
	cloud.google.com/go v0.110.0 // indirect
	cloud.google.com/go/compute v1.18.0 // indirect
	cloud.google.com/go/compute/metadata v0.2.3 // indirect
	cloud.google.com/go/iam v0.12.0 // indirect
	github.com/golang/groupcache v0.0.0-20200121045136-8c9f03a8e57e // indirect
	github.com/golang/protobuf v1.5.2 // indirect
	github.com/google/go-cmp v0.5.9 // indirect
	github.com/google/uuid v1.3.0 // indirect
	github.com/googleapis/enterprise-certificate-proxy v0.2.3 // indirect
	github.com/googleapis/gax-go/v2 v2.7.1 // indirect
	go.opencensus.io v0.24.0 // indirect
	golang.org/x/net v0.8.0 // indirect
	golang.org/x/oauth2 v0.6.0 // indirect
	golang.org/x/sys v0.6.0 // indirect
	golang.org/x/text v0.8.0 // indirect
	golang.org/x/xerrors v0.0.0-20220907171357-04be3eba64a2 // indirect
	google.golang.org/api v0.114.0 // indirect
	google.golang.org/appengine v1.6.7 // indirect
	google.golang.org/genproto v0.0.0-20230320184635-7606e756e683 // indirect
	google.golang.org/grpc v1.53.0 // indirect
	google.golang.org/protobuf v1.29.1 // indirect
)
